
{
  "name": "5dim_resources",
  "version": "3.0.0",
  "title": "5dim's Mod - Rersources",
  "author": "5Dim",
  "contact": "mcguten.videos@gmail.com",
  "homepage": "http://www.5dim.es",
  "description": "Resources for 5dim's mod",
  "dependencies": ["base >= 0.12.0", "5dim_core >= 3.0.0"]
}