{
  "name": "RailTanker",
  "version": "1.1.3",
  "title": "Rail Tanker",
  "author": "James O'Farrell",
  "homepage": "http://www.factorioforums.com/forum/viewtopic.php?f=14&t=6847",
  "dependencies": ["base >= 0.12.11", "? Squeak Through"],
  "description": "Adds an rail tanker (rail tank car) for transporting liquids"
}
