{
  "name": "Transformator",
  "version": "0.0.4",
  "title": "Transformator",
  "author": "Gotbread",
  "dependencies": ["base >= 0.12"],
  "homepage" : "http://www.factorioforums.com/forum/viewtopic.php?f=87&t=13489",
  "description": "Adds a transformator to direct the power flow"
}
