{
  "name": "no-evo",
  "version": "0.2.0",
  "title": "No Time Based Evolution",
  "author": "LoSboccacc",
  "contact": "dev@factorio.com",
  "homepage": "http://factorio.com",
  "description": "Basic mod with all the default game data and standard campaign.",
  "dependencies": ["base >= 0.11.1"]
}